Formal Inference
…
--

```r
promote %>%
  specify(response = decision,
          explanatory = gender,
          success = "promote")
```

--

```
## Response: decision (factor)
## Explanatory: gender (factor)
## # A tibble: 48 × 2
##    decision    gender
##    <fct>       <fct> 
##  1 promote     female
##  2 promote     male  
##  3 promote     male  
##  4 not promote female
##  5 promote     male  
##  6 promote     female
##  7 promote     female
##  8 not promote female
##  9 not promote female
## 10 not promote female
## # … with 38 more rows
```
…
--

.pull-left[

```r
promote %>%
  specify(response = decision,
          explanatory = gender,
          success = "promote")
```

```
## Response: decision (factor)
## Explanatory: gender (factor)
## # A tibble: 48 × 2
##    decision    gender
##    <fct>       <fct> 
##  1 promote     female
##  2 promote     male  
##  3 promote     male  
##  4 not promote female
##  5 promote     male  
##  6 promote     female
##  7 promote     female
##  8 not promote female
##  9 not promote female
## 10 not promote female
## # … with 38 more rows
```
…
--

.pull-right[

```r
promote %>%
  specify(decision ~ gender,
          success = "promote")
```

```
## Response: decision (factor)
## Explanatory: gender (factor)
## # A tibble: 48 × 2
##    decision    gender
##    <fct>       <fct> 
##  1 promote     female
##  2 promote     male  
##  3 promote     male  
##  4 not promote female
##  5 promote     male  
##  6 promote     female
##  7 promote     female
##  8 not promote female
##  9 not promote female
## 10 not promote female
## # … with 38 more rows
```
…
--

```r
promote %>%
  specify(decision ~ gender, success = "promote") %>%
* hypothesize(null = "independence")
```

--

```
## Response: decision (factor)
## Explanatory: gender (factor)
## Null Hypothesis: independence
## # A tibble: 48 × 2
##    decision    gender
##    <fct>       <fct> 
##  1 promote     female
##  2 promote     male  
##  3 promote     male  
##  4 not promote female
##  5 promote     male  
##  6 promote     female
##  7 promote     female
##  8 not promote female
##  9 not promote female
## 10 not promote female
## # … with 38 more rows
```
…
```r
promote %>%
  specify(decision ~ gender, success = "promote") %>%
  hypothesize(null = "independence") %>%
* generate(reps = 1, type = "permute")
```

--

```
## Response: decision (factor)
## Explanatory: gender (factor)
## Null Hypothesis: independence
## # A tibble: 48 × 3
## # Groups:   replicate [1]
##    decision    gender replicate
##    <fct>       <fct>      <int>
##  1 promote     female         1
##  2 promote     male           1
##  3 not promote male           1
##  4 not promote female         1
##  5 not promote male           1
##  6 promote     female         1
##  7 not promote female         1
##  8 promote     female         1
##  9 promote     female         1
## 10 promote     female         1
## # … with 38 more rows
```
…
--

```
## Response: decision (factor)
## Explanatory: gender (factor)
## Null Hypothesis: independence
## # A tibble: 500 × 2
##    replicate    stat
##        <int>   <dbl>
##  1         1  0.125 
##  2         2 -0.125 
##  3         3  0.0417
##  4         4  0.0417
##  5         5  0.125 
##  6         6  0.0417
##  7         7 -0.0417
##  8         8 -0.0417
##  9         9  0.125 
## 10        10  0.0417
## # … with 490 more rows
```
…
